Midterm: Take-home
…
(5 points) Use the function above to download all the data for each of the past 4 school years and bind it into a single data frame, using a single function (i.e., one line of code). Note, this may take a minute or two to run, depending on your Internet speed.

Conduct some basic data cleaning to make your data file look like the following.

Filter for only student groups coded as "White" or "Hispanic/Latino".

Select variables related to the number of students in each of the levels (1:4), and not percentages or collapsed levels.

Remove any row that has missing data in any of the n variables

## # A tibble: 90,576 x 7
##    academic_year district  school     student_group grade_level level     n
##    <chr>         <chr>     <chr>      <chr>         <chr>       <dbl> <dbl>
##  1 2014-2015     Adrian S… Adrian El… Hispanic/Lat… Grade 3         1     2
##  2 2014-2015     Adrian S… Adrian El… Hispanic/Lat… Grade 3         2     1
##  3 2014-2015     Adrian S… Adrian El… Hispanic/Lat… Grade 3         3     2
##  4 2014-2015     Adrian S… Adrian El… Hispanic/Lat… Grade 3         4     1
##  5 2014-2015     Adrian S… Adrian El… Hispanic/Lat… Grade 6         1     2
##  6 2014-2015     Adrian S… Adrian El… Hispanic/Lat… Grade 6         2     3
##  7 2014-2015     Adrian S… Adrian El… Hispanic/Lat… Grade 6         3     2
##  8 2014-2015     Adrian S… Adrian El… Hispanic/Lat… Grade 6         4     0
##  9 2014-2015     Adrian S… Adrian El… Hispanic/Lat… Grade 7         1     2
## 10 2014-2015     Adrian S… Adrian El… Hispanic/Lat… Grade 7         2     2
## # … with 90,566 more rows

(2 points) Calculate the cumulative n for each school by student group, grade, and academic year. The result should look like the below. Hint, look at ?base::cumsum.

## # A tibble: 90,576 x 8
##    academic_year district     school                   student_group  
##    <chr>         <chr>        <chr>                    <chr>          
##  1 2014-2015     Adrian SD 61 Adrian Elementary School Hispanic/Latino
##  2 2014-2015     Adrian SD 61 Adrian Elementary School Hispanic/Latino
##  3 2014-2015     Adrian SD 61 Adrian Elementary School Hispanic/Latino
##  4 2014-2015     Adrian SD 61 Adrian Elementary School Hispanic/Latino
##  5 2014-2015     Adrian SD 61 Adrian Elementary School Hispanic/Latino
##  6 2014-2015     Adrian SD 61 Adrian Elementary School Hispanic/Latino
##  7 2014-2015     Adrian SD 61 Adrian Elementary School Hispanic/Latino
##  8 2014-2015     Adrian SD 61 Adrian Elementary School Hispanic/Latino
##  9 2014-2015     Adrian SD 61 Adrian Elementary School Hispanic/Latino
## 10 2014-2015     Adrian SD 61 Adrian Elementary School Hispanic/Latino
##    grade_level level     n    cn
##    <chr>       <dbl> <dbl> <dbl>
##  1 Grade 3         1     2     2
##  2 Grade 3         2     1     3
##  3 Grade 3         3     2     5
##  4 Grade 3         4     1     6
##  5 Grade 6         1     2     2
##  6 Grade 6         2     3     5
##  7 Grade 6         3     2     7
##  8 Grade 6         4     0     7
##  9 Grade 7         1     2     2
## 10 Grade 7         2     2     4
## # … with 90,566 more rows

(3 points) Reformat the data so it looks like the below, removing n and filling by cn. Remove rows that have missing data for either student group.

## # A tibble: 33,948 x 7
##    academic_year district  school   grade_level level hispanic_latino white
##    <chr>         <chr>     <chr>    <chr>       <dbl>           <dbl> <dbl>
##  1 2014-2015     Adrian S… Adrian … Grade 3         1               2     0
##  2 2014-2015     Adrian S… Adrian … Grade 3         2               3     4
##  3 2014-2015     Adrian S… Adrian … Grade 3         3               5     7
##  4 2014-2015     Adrian S… Adrian … Grade 3         4               6    11
##  5 2014-2015     Adrian S… Adrian … Grade 6         1               2     0
##  6 2014-2015     Adrian S… Adrian … Grade 6         2               5     3
##  7 2014-2015     Adrian S… Adrian … Grade 6         3               7     8
##  8 2014-2015     Adrian S… Adrian … Grade 6         4               7     9
##  9 2014-2015     Adrian S… Adrian … Grade 7         1               2     3
## 10 2014-2015     Adrian S… Adrian … Grade 7         2               4     5
## # … with 33,938 more rows
…
