Developing Your First R Package
…
---
# Restructure the data for plotting

```r
d <- d %>% 
  gather(group, value, -var) 
d
```

```
## # A tibble: 4,000 x 3
##    var    group     value
##    <chr>  <chr>     <dbl>
##  1 common low    8.825456
##  2 common low    9.489170
##  3 common low    9.909542
##  4 common low    9.485481
##  5 common low   10.31626 
##  6 common low   10.27789 
##  7 common low   10.83063 
##  8 common low    9.446087
##  9 common low   11.75976 
## 10 common low    9.741372
## # … with 3,990 more rows
```
…
