Intro to {purrr}
…
---
# Some examples
### Please follow along

```r
econ <- economics %>%
	mutate(year = lubridate::year(date))
econ
```

```
## # A tibble: 574 x 7
##    date            pce    pop psavert  uempmed unemploy  year
##    <date>        <dbl>  <int>   <dbl>    <dbl>    <int> <dbl>
##  1 1967-07-01 507.4    198712    12.5 4.5          2944  1967
##  2 1967-08-01 510.5    198911    12.5 4.7          2945  1967
##  3 1967-09-01 516.3000 199113    11.7 4.600000     2958  1967
##  4 1967-10-01 512.9    199311    12.5 4.9          3143  1967
##  5 1967-11-01 518.1    199498    12.5 4.7          3066  1967
##  6 1967-12-01 525.800  199657    12.1 4.8          3018  1967
##  7 1968-01-01 531.5    199808    11.7 5.100000     2878  1968
##  8 1968-02-01 534.2    199920    12.2 4.5          3001  1968
##  9 1968-03-01 544.9    200056    11.6 4.100000     2877  1968
## 10 1968-04-01 544.6    200208    12.2 4.600000     2709  1968
## # … with 564 more rows
```
…
