Batch loading data
…
---
# Swap for `map_df`
### Try it - what happens?

--

```r
sims_df <- map_df(seq(10, 150, 5), simulate, 100, 10)
sims_df
```

```
## # A tibble: 2,320 x 2
##    sample_id    sample
##        <int>     <dbl>
##  1         1 105.2768 
##  2         2 108.0377 
##  3         3  92.80613
##  4         4 103.8668 
##  5         5  94.49651
##  6         6 121.3657 
##  7         7 118.5711 
##  8         8 112.0742 
##  9         9  88.31388
## 10        10 106.8642 
## # … with 2,310 more rows
```
…
---
# Batch load
* Loop through the directories and `import` or `read_csv`

```r
files <- dir_ls(here::here("data"), glob = "*.csv")
batch <- map_df(files, read_csv)
batch
```

```
## # A tibble: 15,945 x 22
##    Entry  Theta Status Count RawScore       SE Infit Infit_Z Outfit
##    <dbl>  <dbl>  <dbl> <dbl>    <dbl>    <dbl> <dbl>   <dbl>  <dbl>
##  1   376 0.3483      1    36       17 0.3629    1.02    0.18   0.96
##  2   364 0.2156      1    36       14 0.3629    1.09    0.71   1.03
##  3   340 4.4752      1    36       35 1.0234    1.01    0.32   0.66
##  4   334 5.7137      0    36       36 1.8371    1       0      1   
##  5   314 3.2773      1    36       33 0.6187    0.89   -0.12   0.72
##  6   146 1.4088      1    36       24 0.3774    1.04    0.48   1.03
##  7   106 3.2773      1    36       33 0.6187    1.09    0.33   1.02
##  8   290 2.9394      1    36       32 0.547800  0.82   -0.71   0.56
##  9   330 1.5541      1    36       25 0.3852    0.82   -1.02   0.74
## 10   251 2.6655      1    36       31 0.5008    1       0      0.67
## # … with 15,935 more rows, and 13 more variables: Outfit_Z <dbl>,
## #   Displacement <dbl>, PointMeasureCorr <dbl>, Weight <dbl>,
## #   ObservMatch <dbl>, ExpectMatch <dbl>, PointMeasureExpected <dbl>,
## #   RMSR <dbl>, WMLE <dbl>, testeventid <dbl>, ssid <dbl>,
## #   asmtprmrydsbltycd <dbl>, asmtscndrydsbltycd <dbl>
```
…
### Try to fix it!

---
# Add id

```r
batch2 <- map_df(files, read_csv, .id = "file")
batch2
```

```
## # A tibble: 15,945 x 23
##    file  Entry  Theta Status Count RawScore       SE Infit Infit_Z Outfit
##    <chr> <dbl>  <dbl>  <dbl> <dbl>    <dbl>    <dbl> <dbl>   <dbl>  <dbl>
##  1 /Use…   376 0.3483      1    36       17 0.3629    1.02    0.18   0.96
##  2 /Use…   364 0.2156      1    36       14 0.3629    1.09    0.71   1.03
##  3 /Use…   340 4.4752      1    36       35 1.0234    1.01    0.32   0.66
##  4 /Use…   334 5.7137      0    36       36 1.8371    1       0      1   
##  5 /Use…   314 3.2773      1    36       33 0.6187    0.89   -0.12   0.72
##  6 /Use…   146 1.4088      1    36       24 0.3774    1.04    0.48   1.03
##  7 /Use…   106 3.2773      1    36       33 0.6187    1.09    0.33   1.02
##  8 /Use…   290 2.9394      1    36       32 0.547800  0.82   -0.71   0.56
##  9 /Use…   330 1.5541      1    36       25 0.3852    0.82   -1.02   0.74
## 10 /Use…   251 2.6655      1    36       31 0.5008    1       0      0.67
## # … with 15,935 more rows, and 13 more variables: Outfit_Z <dbl>,
## #   Displacement <dbl>, PointMeasureCorr <dbl>, Weight <dbl>,
## #   ObservMatch <dbl>, ExpectMatch <dbl>, PointMeasureExpected <dbl>,
## #   RMSR <dbl>, WMLE <dbl>, testeventid <dbl>, ssid <dbl>,
## #   asmtprmrydsbltycd <dbl>, asmtscndrydsbltycd <dbl>
```

---

```r
batch2 %>%
	count(file)
```

```
## # A tibble: 31 x 2
##    file                                                                   n
##    <chr>                                                              <int>
##  1 /Users/Daniel/Teaching/data_sci_specialization/c3-fun_program_r/d…   453
##  2 /Users/Daniel/Teaching/data_sci_specialization/c3-fun_program_r/d…   460
##  3 /Users/Daniel/Teaching/data_sci_specialization/c3-fun_program_r/d…   453
##  4 /Users/Daniel/Teaching/data_sci_specialization/c3-fun_program_r/d…   438
##  5 /Users/Daniel/Teaching/data_sci_specialization/c3-fun_program_r/d…   453
##  6 /Users/Daniel/Teaching/data_sci_specialization/c3-fun_program_r/d…   540
##  7 /Users/Daniel/Teaching/data_sci_specialization/c3-fun_program_r/d…   536
##  8 /Users/Daniel/Teaching/data_sci_specialization/c3-fun_program_r/d…   540
##  9 /Users/Daniel/Teaching/data_sci_specialization/c3-fun_program_r/d…   540
## 10 /Users/Daniel/Teaching/data_sci_specialization/c3-fun_program_r/d…   585
## # … with 21 more rows
```
…
---
# Step 1

* Remove the `here::here` path from string

```r
batch2 <- batch2 %>%
	mutate(file = str_replace_all(file, here::here("data"), ""))

count(batch2, file)
```

```
## # A tibble: 31 x 2
##    file                            n
##    <chr>                       <int>
##  1 /g11ELApfiles18_sim.csv       453
##  2 /g11Mathpfiles18_sim.csv      460
##  3 /g11Rdgpfiles18_sim.csv       453
##  4 /g11Sciencepfiles18_sim.csv   438
##  5 /g11Wripfiles18_sim.csv       453
##  6 /g3ELApfiles18_sim.csv        540
##  7 /g3Mathpfiles18_sim.csv       536
##  8 /g3Rdgpfiles18_sim.csv        540
##  9 /g3Wripfiles18_sim.csv        540
## 10 /g4ELApfiles18_sim.csv        585
## # … with 21 more rows
```
…
---
# Pull grade

* Note - I'm not expecting you to just suddenly be able to do this. This is more
for illustration. There's also other ways you could extract the same info

```r
batch2 %>%
	mutate(grade = str_replace_all(file, "/g(\\d?\\d).+", "\\1")) %>%
	select(file, grade)
```

```
## # A tibble: 15,945 x 2
##    file                    grade
##    <chr>                   <chr>
##  1 /g11ELApfiles18_sim.csv 11   
##  2 /g11ELApfiles18_sim.csv 11   
##  3 /g11ELApfiles18_sim.csv 11   
##  4 /g11ELApfiles18_sim.csv 11   
##  5 /g11ELApfiles18_sim.csv 11   
##  6 /g11ELApfiles18_sim.csv 11   
##  7 /g11ELApfiles18_sim.csv 11   
##  8 /g11ELApfiles18_sim.csv 11   
##  9 /g11ELApfiles18_sim.csv 11   
## 10 /g11ELApfiles18_sim.csv 11   
## # … with 15,935 more rows
```

---
# `parse_number`

* In this case `parse_number` also works - but note that it would not work to
extract the year

```r
batch2 %>%
*mutate(grade = parse_number(file)) %>%
	select(file, grade)
```

```
## # A tibble: 15,945 x 2
##    file                    grade
##    <chr>                   <dbl>
##  1 /g11ELApfiles18_sim.csv    11
##  2 /g11ELApfiles18_sim.csv    11
##  3 /g11ELApfiles18_sim.csv    11
##  4 /g11ELApfiles18_sim.csv    11
##  5 /g11ELApfiles18_sim.csv    11
##  6 /g11ELApfiles18_sim.csv    11
##  7 /g11ELApfiles18_sim.csv    11
##  8 /g11ELApfiles18_sim.csv    11
##  9 /g11ELApfiles18_sim.csv    11
## 10 /g11ELApfiles18_sim.csv    11
## # … with 15,935 more rows
```
---
# Extract year

* In this case `parse_number` also works - but note that it would not work to
extract the year

```r
batch2 %>%
	mutate(grade = str_replace_all(file, "/g(\\d?\\d).+", "\\1"),
*       year = str_replace_all(file, ".+files(\\d\\d)_sim.+", "\\1")) %>%
	select(file, grade, year)
```

```
## # A tibble: 15,945 x 3
##    file                    grade year 
##    <chr>                   <chr> <chr>
##  1 /g11ELApfiles18_sim.csv 11    18   
##  2 /g11ELApfiles18_sim.csv 11    18   
##  3 /g11ELApfiles18_sim.csv 11    18   
##  4 /g11ELApfiles18_sim.csv 11    18   
##  5 /g11ELApfiles18_sim.csv 11    18   
##  6 /g11ELApfiles18_sim.csv 11    18   
##  7 /g11ELApfiles18_sim.csv 11    18   
##  8 /g11ELApfiles18_sim.csv 11    18   
##  9 /g11ELApfiles18_sim.csv 11    18   
## 10 /g11ELApfiles18_sim.csv 11    18   
## # … with 15,935 more rows
```

---
# Extract Content Area

```r
batch2 %>%
	mutate(grade = str_replace_all(file, "/g(\\d?\\d).+", "\\1"),
	       year = str_replace_all(file, ".+files(\\d\\d)_sim.+", "\\1"),
*       content = str_replace_all(file, "/g\\d?\\d(.+)pfiles.+", "\\1")) %>%
	select(file, grade, year, content)
```

```
## # A tibble: 15,945 x 4
##    file                    grade year  content
##    <chr>                   <chr> <chr> <chr>  
##  1 /g11ELApfiles18_sim.csv 11    18    ELA    
##  2 /g11ELApfiles18_sim.csv 11    18    ELA    
##  3 /g11ELApfiles18_sim.csv 11    18    ELA    
##  4 /g11ELApfiles18_sim.csv 11    18    ELA    
##  5 /g11ELApfiles18_sim.csv 11    18    ELA    
##  6 /g11ELApfiles18_sim.csv 11    18    ELA    
##  7 /g11ELApfiles18_sim.csv 11    18    ELA    
##  8 /g11ELApfiles18_sim.csv 11    18    ELA    
##  9 /g11ELApfiles18_sim.csv 11    18    ELA    
## 10 /g11ELApfiles18_sim.csv 11    18    ELA    
## # … with 15,935 more rows
```
…
---
# Final product
* In this case, we basically have a tidy data frame already! 

* We've reduced our problem from 31 files to a single file

```r
d
```

```
## # A tibble: 15,945 x 25
##        ssid grade  year content testeventid asmtprmrydsbltycd
##       <dbl> <int> <int> <chr>         <dbl>             <dbl>
##  1 11424133    11    11 ELA          151867                10
##  2 11032405    11    11 ELA          144283                82
##  3 10809295    11    11 ELA          146312                10
##  4 10815457    11    11 ELA          146977                10
##  5 10638008    11    11 ELA          144402                10
##  6 10006109    11    11 ELA          149010                10
##  7  9305807    11    11 ELA          146880                10
##  8 10396942    11    11 ELA          143994                10
##  9 10801367    11    11 ELA          143860                10
## 10 10246495    11    11 ELA          144434                80
## # … with 15,935 more rows, and 19 more variables:
## #   asmtscndrydsbltycd <dbl>, Entry <dbl>, Theta <dbl>, Status <dbl>,
## #   Count <dbl>, RawScore <dbl>, SE <dbl>, Infit <dbl>, Infit_Z <dbl>,
## #   Outfit <dbl>, Outfit_Z <dbl>, Displacement <dbl>,
## #   PointMeasureCorr <dbl>, Weight <dbl>, ObservMatch <dbl>,
## #   ExpectMatch <dbl>, PointMeasureExpected <dbl>, RMSR <dbl>, WMLE <dbl>
```
…
---
# Calculate some summary stats

```r
d %>%
	group_by(grade, content, asmtprmrydsbltycd) %>%
	summarize(mean = mean(Theta)) %>%
	spread(content, mean)
```

```
## # A tibble: 77 x 7
## # Groups:   grade [7]
##    grade asmtprmrydsbltycd        ELA       Math         Rdg Science
##    <int>             <dbl>      <dbl>      <dbl>       <dbl>   <dbl>
##  1     3                 0  0.7972462 -3.38815    0.8141667       NA
##  2     3                10  0.4113426 -0.7972930  0.7428369       NA
##  3     3                20  0.4086200 -1.46495    0.7528571       NA
##  4     3                40 -2.766267  -2.925338  -2               NA
##  5     3                50  1.407710  -0.1980967  0.7541463       NA
##  6     3                60  1.33732   -0.9878643  0.7753333       NA
##  7     3                70  0.2105250 -1.658856  -0.9320000       NA
##  8     3                74  1.504025   0.2944778  0.02600000      NA
##  9     3                80  1.025756  -0.6844064  0.7501333       NA
## 10     3                82  0.3758255 -0.8861006  0.5980100       NA
## # … with 67 more rows, and 1 more variable: Wri <dbl>
```
…
---
# Try again

```r
files <- list.files(here::here("data"), 
                    pattern = "*.csv", 
                    full.names = TRUE)
batch3 <- map_df(files, read_csv, .id = "file")
batch3
```

```
## # A tibble: 15,945 x 23
##    file  Entry  Theta Status Count RawScore       SE Infit Infit_Z Outfit
##    <chr> <dbl>  <dbl>  <dbl> <dbl>    <dbl>    <dbl> <dbl>   <dbl>  <dbl>
##  1 1       376 0.3483      1    36       17 0.3629    1.02    0.18   0.96
##  2 1       364 0.2156      1    36       14 0.3629    1.09    0.71   1.03
##  3 1       340 4.4752      1    36       35 1.0234    1.01    0.32   0.66
##  4 1       334 5.7137      0    36       36 1.8371    1       0      1   
##  5 1       314 3.2773      1    36       33 0.6187    0.89   -0.12   0.72
##  6 1       146 1.4088      1    36       24 0.3774    1.04    0.48   1.03
##  7 1       106 3.2773      1    36       33 0.6187    1.09    0.33   1.02
##  8 1       290 2.9394      1    36       32 0.547800  0.82   -0.71   0.56
##  9 1       330 1.5541      1    36       25 0.3852    0.82   -1.02   0.74
## 10 1       251 2.6655      1    36       31 0.5008    1       0      0.67
## # … with 15,935 more rows, and 13 more variables: Outfit_Z <dbl>,
## #   Displacement <dbl>, PointMeasureCorr <dbl>, Weight <dbl>,
## #   ObservMatch <dbl>, ExpectMatch <dbl>, PointMeasureExpected <dbl>,
## #   RMSR <dbl>, WMLE <dbl>, testeventid <dbl>, ssid <dbl>,
## #   asmtprmrydsbltycd <dbl>, asmtscndrydsbltycd <dbl>
```
…
---
# Base method that works

```r
files <- list.files(here::here("data"), 
                    pattern = "*.csv", 
                    full.names = TRUE) 
files <- setNames(files, files)

batch4 <- map_df(files, read_csv, .id = "file")
batch4
```

```
## # A tibble: 15,945 x 23
##    file  Entry  Theta Status Count RawScore       SE Infit Infit_Z Outfit
##    <chr> <dbl>  <dbl>  <dbl> <dbl>    <dbl>    <dbl> <dbl>   <dbl>  <dbl>
##  1 /Use…   376 0.3483      1    36       17 0.3629    1.02    0.18   0.96
##  2 /Use…   364 0.2156      1    36       14 0.3629    1.09    0.71   1.03
##  3 /Use…   340 4.4752      1    36       35 1.0234    1.01    0.32   0.66
##  4 /Use…   334 5.7137      0    36       36 1.8371    1       0      1   
##  5 /Use…   314 3.2773      1    36       33 0.6187    0.89   -0.12   0.72
##  6 /Use…   146 1.4088      1    36       24 0.3774    1.04    0.48   1.03
##  7 /Use…   106 3.2773      1    36       33 0.6187    1.09    0.33   1.02
##  8 /Use…   290 2.9394      1    36       32 0.547800  0.82   -0.71   0.56
##  9 /Use…   330 1.5541      1    36       25 0.3852    0.82   -1.02   0.74
## 10 /Use…   251 2.6655      1    36       31 0.5008    1       0      0.67
## # … with 15,935 more rows, and 13 more variables: Outfit_Z <dbl>,
## #   Displacement <dbl>, PointMeasureCorr <dbl>, Weight <dbl>,
## #   ObservMatch <dbl>, ExpectMatch <dbl>, PointMeasureExpected <dbl>,
## #   RMSR <dbl>, WMLE <dbl>, testeventid <dbl>, ssid <dbl>,
## #   asmtprmrydsbltycd <dbl>, asmtscndrydsbltycd <dbl>
```
…
