Parellel Iterations
…
---
# More powerful
### Add it as a list column!

```r
sim2 <- conditions %>%
	as_tibble() %>% # Not required, but definitely helpful
	mutate(sim = map2(n, mu, ~rnorm(.x, .y, sd = 10))) 
sim2
```

```
## # A tibble: 510 x 3
##        n    mu sim       
##    <dbl> <dbl> <list>    
##  1     5    -2 <dbl [5]> 
##  2    10    -2 <dbl [10]>
##  3    15    -2 <dbl [15]>
##  4    20    -2 <dbl [20]>
##  5    25    -2 <dbl [25]>
##  6    30    -2 <dbl [30]>
##  7    35    -2 <dbl [35]>
##  8    40    -2 <dbl [40]>
##  9    45    -2 <dbl [45]>
## 10    50    -2 <dbl [50]>
## # … with 500 more rows
```

---
# Unnest

```r
conditions %>%
	as_tibble() %>% # Not required, but definitely helpful
	mutate(sim = map2(n, mu, ~rnorm(.x, .y, sd = 10))) %>%
	unnest()
```

```
## # A tibble: 39,525 x 3
##        n    mu        sim
##    <dbl> <dbl>      <dbl>
##  1     5    -2  -6.799818
##  2     5    -2 -11.82891 
##  3     5    -2  -1.997035
##  4     5    -2  -5.874381
##  5     5    -2  -7.569429
##  6    10    -2 -16.78940 
##  7    10    -2 -14.90955 
##  8    10    -2 -13.69314 
##  9    10    -2  -1.759368
## 10    10    -2  -9.681130
## # … with 39,515 more rows
```
…
--
### `pmap`
Which we'll get to soon

---
# Varying the title of a plot
### The data

```r
library(fivethirtyeight)
pulitzer
```

```
## # A tibble: 50 x 7
##    newspaper circ2004 circ2013 pctchg_circ num_finals1990_2003
##    <chr>        <dbl>    <dbl>       <int>               <int>
##  1 USA Today  2192098  1674306         -24                   1
##  2 Wall Str…  2101017  2378827          13                  30
##  3 New York…  1119027  1865318          67                  55
##  4 Los Ange…   983727   653868         -34                  44
##  5 Washingt…   760034   474767         -38                  52
##  6 New York…   712671   516165         -28                   4
##  7 New York…   642844   500521         -22                   0
##  8 Chicago …   603315   414930         -31                  23
##  9 San Jose…   558874   583998           4                   4
## 10 Newsday     553117   377744         -32                  12
## # … with 40 more rows, and 2 more variables: num_finals2004_2014 <int>,
## #   num_finals1990_2014 <int>
```
---
# Prep data

```r
pulitzer <- pulitzer %>%
	select(newspaper, starts_with("num")) %>%
	gather(year_range, n, -newspaper) %>%
	mutate(year_range = str_replace_all(year_range, "num_finals", ""),
	       year_range = str_replace_all(year_range, "_", "-")) %>%
	filter(year_range != "1990-2014")
pulitzer
```

```
## # A tibble: 100 x 3
##    newspaper             year_range     n
##    <chr>                 <chr>      <int>
##  1 USA Today             1990-2003      1
##  2 Wall Street Journal   1990-2003     30
##  3 New York Times        1990-2003     55
##  4 Los Angeles Times     1990-2003     44
##  5 Washington Post       1990-2003     52
##  6 New York Daily News   1990-2003      4
##  7 New York Post         1990-2003      0
##  8 Chicago Tribune       1990-2003     23
##  9 San Jose Mercury News 1990-2003      4
## 10 Newsday               1990-2003     12
## # … with 90 more rows
```
…
---
# Nest data

```r
pulitzer %>%
	group_by(newspaper) %>%
	nest()
```

```
## # A tibble: 50 x 2
##    newspaper             data            
##    <chr>                 <list>          
##  1 USA Today             <tibble [2 × 2]>
##  2 Wall Street Journal   <tibble [2 × 2]>
##  3 New York Times        <tibble [2 × 2]>
##  4 Los Angeles Times     <tibble [2 × 2]>
##  5 Washington Post       <tibble [2 × 2]>
##  6 New York Daily News   <tibble [2 × 2]>
##  7 New York Post         <tibble [2 × 2]>
##  8 Chicago Tribune       <tibble [2 × 2]>
##  9 San Jose Mercury News <tibble [2 × 2]>
## 10 Newsday               <tibble [2 × 2]>
## # … with 40 more rows
```
…
```
## # A tibble: 50 x 3
##    newspaper             data             plot    
##    <chr>                 <list>           <list>  
##  1 USA Today             <tibble [2 × 2]> <S3: gg>
##  2 Wall Street Journal   <tibble [2 × 2]> <S3: gg>
##  3 New York Times        <tibble [2 × 2]> <S3: gg>
##  4 Los Angeles Times     <tibble [2 × 2]> <S3: gg>
##  5 Washington Post       <tibble [2 × 2]> <S3: gg>
##  6 New York Daily News   <tibble [2 × 2]> <S3: gg>
##  7 New York Post         <tibble [2 × 2]> <S3: gg>
##  8 Chicago Tribune       <tibble [2 × 2]> <S3: gg>
##  9 San Jose Mercury News <tibble [2 × 2]> <S3: gg>
## 10 Newsday               <tibble [2 × 2]> <S3: gg>
## # … with 40 more rows
```
…
--- 

```r
p
```

```
## # A tibble: 50 x 3
##    newspaper             data             plot    
##    <chr>                 <list>           <list>  
##  1 USA Today             <tibble [2 × 2]> <S3: gg>
##  2 Wall Street Journal   <tibble [2 × 2]> <S3: gg>
##  3 New York Times        <tibble [2 × 2]> <S3: gg>
##  4 Los Angeles Times     <tibble [2 × 2]> <S3: gg>
##  5 Washington Post       <tibble [2 × 2]> <S3: gg>
##  6 New York Daily News   <tibble [2 × 2]> <S3: gg>
##  7 New York Post         <tibble [2 × 2]> <S3: gg>
##  8 Chicago Tribune       <tibble [2 × 2]> <S3: gg>
##  9 San Jose Mercury News <tibble [2 × 2]> <S3: gg>
## 10 Newsday               <tibble [2 × 2]> <S3: gg>
## # … with 40 more rows
```
…
```r
full_conditions %>%
	as_tibble() %>%
	mutate(sim = pmap(list(n, mu, sd), ~rnorm(..1, ..2, ..3)))
```

```
## # A tibble: 10,710 x 4
##        n    mu    sd sim       
##    <dbl> <dbl> <dbl> <list>    
##  1     5    -2     1 <dbl [5]> 
##  2    10    -2     1 <dbl [10]>
##  3    15    -2     1 <dbl [15]>
##  4    20    -2     1 <dbl [20]>
##  5    25    -2     1 <dbl [25]>
##  6    30    -2     1 <dbl [30]>
##  7    35    -2     1 <dbl [35]>
##  8    40    -2     1 <dbl [40]>
##  9    45    -2     1 <dbl [45]>
## 10    50    -2     1 <dbl [50]>
## # … with 10,700 more rows
```
---
# Unnest

```r
full_conditions %>%
	as_tibble() %>%
	mutate(sim = pmap(list(n, mu, sd), ~rnorm(..1, ..2, ..3))) %>%
	unnest()
```

```
## # A tibble: 830,025 x 4
##        n    mu    sd        sim
##    <dbl> <dbl> <dbl>      <dbl>
##  1     5    -2     1 -1.152654 
##  2     5    -2     1 -2.468304 
##  3     5    -2     1 -0.5156141
##  4     5    -2     1 -1.163307 
##  5     5    -2     1 -2.303434 
##  6    10    -2     1 -0.3618123
##  7    10    -2     1 -3.325788 
##  8    10    -2     1 -0.7039727
##  9    10    -2     1 -1.897031 
## 10    10    -2     1  1.001286 
## # … with 830,015 more rows
```
…
---
# Add column for total

```r
pulitzer <- pulitzer %>%
	group_by(newspaper) %>%
	mutate(tot = sum(n))
pulitzer
```

```
## # A tibble: 100 x 4
## # Groups:   newspaper [50]
##    newspaper             year_range     n   tot
##    <chr>                 <chr>      <int> <int>
##  1 USA Today             1990-2003      1     2
##  2 Wall Street Journal   1990-2003     30    50
##  3 New York Times        1990-2003     55   117
##  4 Los Angeles Times     1990-2003     44    85
##  5 Washington Post       1990-2003     52   100
##  6 New York Daily News   1990-2003      4     6
##  7 New York Post         1990-2003      0     0
##  8 Chicago Tribune       1990-2003     23    38
##  9 San Jose Mercury News 1990-2003      4     6
## 10 Newsday               1990-2003     12    18
## # … with 90 more rows
```
---
# Easiest way (imo)
Create a column to represent exactly the label you want.

```r
#install.packages("english")
library(english)
pulitzer <- pulitzer %>%
	mutate(label = 
    glue("{str_to_title(as.english(tot))} Total Pulitzer Awards"))
pulitzer
```

```
## # A tibble: 100 x 5
## # Groups:   newspaper [50]
##    newspaper          year_range     n   tot label                         
##    <chr>              <chr>      <int> <int> <chr>                         
##  1 USA Today          1990-2003      1     2 Two Total Pulitzer Awards     
##  2 Wall Street Journ… 1990-2003     30    50 Fifty Total Pulitzer Awards   
##  3 New York Times     1990-2003     55   117 One Hundred Seventeen Total P…
##  4 Los Angeles Times  1990-2003     44    85 Eighty Five Total Pulitzer Aw…
##  5 Washington Post    1990-2003     52   100 One Hundred Total Pulitzer Aw…
##  6 New York Daily Ne… 1990-2003      4     6 Six Total Pulitzer Awards     
##  7 New York Post      1990-2003      0     0 Zero Total Pulitzer Awards    
##  8 Chicago Tribune    1990-2003     23    38 Thirty Eight Total Pulitzer A…
##  9 San Jose Mercury … 1990-2003      4     6 Six Total Pulitzer Awards     
## 10 Newsday            1990-2003     12    18 Eighteen Total Pulitzer Awards
## # … with 90 more rows
```
…
---
# Produce all plots
### Nest first

```r
pulitzer %>%
	group_by(newspaper, label) %>%
	nest() 
```

```
## # A tibble: 50 x 3
##    newspaper            label                                data          
##    <chr>                <chr>                                <list>        
##  1 USA Today            Two Total Pulitzer Awards            <tibble [2 × …
##  2 Wall Street Journal  Fifty Total Pulitzer Awards          <tibble [2 × …
##  3 New York Times       One Hundred Seventeen Total Pulitze… <tibble [2 × …
##  4 Los Angeles Times    Eighty Five Total Pulitzer Awards    <tibble [2 × …
##  5 Washington Post      One Hundred Total Pulitzer Awards    <tibble [2 × …
##  6 New York Daily News  Six Total Pulitzer Awards            <tibble [2 × …
##  7 New York Post        Zero Total Pulitzer Awards           <tibble [2 × …
##  8 Chicago Tribune      Thirty Eight Total Pulitzer Awards   <tibble [2 × …
##  9 San Jose Mercury Ne… Six Total Pulitzer Awards            <tibble [2 × …
## 10 Newsday              Eighteen Total Pulitzer Awards       <tibble [2 × …
## # … with 40 more rows
```
…
