Functions: Part 3
…
* The tidyverse uses it so frequently, they've decided to implement their own
version, called `tidyeval`, which we'll get to in a minute.

---
# Why is NSE used so frequently in the tidyverse?

.pull-left[

```r
select(mpg, 
       manufacturer, model, hwy)
```

```
## # A tibble: 234 x 3
##    manufacturer model        hwy
##    <chr>        <chr>      <int>
##  1 audi         a4            29
##  2 audi         a4            29
##  3 audi         a4            31
##  4 audi         a4            30
##  5 audi         a4            26
##  6 audi         a4            26
##  7 audi         a4            27
##  8 audi         a4 quattro    26
##  9 audi         a4 quattro    25
## 10 audi         a4 quattro    28
## # … with 224 more rows
```
…
```r
group_means2(diamonds, price, cut, clarity)
```

```
## # A tibble: 40 x 3
## # Groups:   cut [5]
##    cut   clarity     mean
##    <ord> <ord>      <dbl>
##  1 Fair  I1      3703.533
##  2 Fair  SI2     5173.916
##  3 Fair  SI1     4208.279
##  4 Fair  VS2     4174.724
##  5 Fair  VS1     4165.141
##  6 Fair  VVS2    3349.768
##  7 Fair  VVS1    3871.353
##  8 Fair  IF      1912.333
##  9 Good  I1      3596.635
## 10 Good  SI2     4580.261
## # … with 30 more rows
```

---
# Added benefit
I can now also pass as many columns as I want, and it will still work!

```r
group_means2(diamonds, price, cut, clarity, color)
```

```
## # A tibble: 276 x 4
## # Groups:   cut, clarity [40]
##    cut   clarity color     mean
##    <ord> <ord>   <ord>    <dbl>
##  1 Fair  I1      D     7383    
##  2 Fair  I1      E     2095.222
##  3 Fair  I1      F     2543.514
##  4 Fair  I1      G     3187.472
##  5 Fair  I1      H     4212.962
##  6 Fair  I1      I     3501    
##  7 Fair  I1      J     5795.043
##  8 Fair  SI2     D     4355.143
##  9 Fair  SI2     E     4172.385
## 10 Fair  SI2     F     4520.112
## # … with 266 more rows
```
…
